Chapter 17 dplyr을 이용한 데이터 변형하기 | R을 이용한 데이터 랭글링
…
left_join() 함수를 이용해 왼쪽 데이터프레임을 기준으로 합쳐보도록 합니다. 두 데이터 모두 Year가 있으므로 이를 기준으로 데이터가 합쳐집니다.

join_exp = long_exp %>% left_join(inflation)

join_exp

## # A tibble: 30 x 6
##    Division State       Year Expenditure Annual Inflation
##       <int> <fct>      <dbl>       <int>  <dbl>     <dbl>
##  1        6 Alabama     2007     6245031   207.     0.903
##  2        9 Alaska      2007     1634316   207.     0.903
##  3        8 Arizona     2007     7815720   207.     0.903
##  4        7 Arkansas    2007     3997701   207.     0.903
##  5        9 California  2007    57352599   207.     0.903
##  6        8 Colorado    2007     6579053   207.     0.903
##  7        6 Alabama     2008     6832439   215.     0.938
##  8        9 Alaska      2008     1918375   215.     0.938
##  9        8 Arizona     2008     8403221   215.     0.938
## 10        7 Arkansas    2008     4156368   215.     0.938
## # … with 20 more rows
…
